%YAML 1.1
%TAG !u! tag:unity3d.com,2011:
--- !u!1001 &100100000
Prefab:
  m_ObjectHideFlags: 1
  serializedVersion: 2
  m_Modification:
    m_TransformParent: {fileID: 0}
    m_Modifications: []
    m_RemovedComponents: []
  m_ParentPrefab: {fileID: 0}
  m_RootGameObject: {fileID: 1631766843658304}
  m_IsPrefabParent: 1
--- !u!1 &1631766843658304
GameObject:
  m_ObjectHideFlags: 0
  m_PrefabParentObject: {fileID: 0}
  m_PrefabInternal: {fileID: 100100000}
  serializedVersion: 5
  m_Component:
  - component: {fileID: 4354894984795672}
  - component: {fileID: 114134365721281620}
  m_Layer: 0
  m_Name: Pooler
  m_TagString: Untagged
  m_Icon: {fileID: 0}
  m_NavMeshLayer: 0
  m_StaticEditorFlags: 0
  m_IsActive: 1
--- !u!4 &4354894984795672
Transform:
  m_ObjectHideFlags: 1
  m_PrefabParentObject: {fileID: 0}
  m_PrefabInternal: {fileID: 100100000}
  m_GameObject: {fileID: 1631766843658304}
  m_LocalRotation: {x: 0, y: 0, z: 0, w: 1}
  m_LocalPosition: {x: 0, y: 0, z: 0}
  m_LocalScale: {x: 1, y: 1, z: 1}
  m_Children: []
  m_Father: {fileID: 0}
  m_RootOrder: 0
  m_LocalEulerAnglesHint: {x: 0, y: 0, z: 0}
--- !u!114 &114134365721281620
MonoBehaviour:
  m_ObjectHideFlags: 1
  m_PrefabParentObject: {fileID: 0}
  m_PrefabInternal: {fileID: 100100000}
  m_GameObject: {fileID: 1631766843658304}
  m_Enabled: 1
  m_EditorHideFlags: 0
  m_Script: {fileID: 11500000, guid: 55b4c0b2ad5b0a24da7108511d1acbc8, type: 3}
  m_Name: 
  m_EditorClassIdentifier: 
  objets:
  - {fileID: 1703873829670464, guid: 806399dff3fefbd4a917a85907464041, type: 2}
  - {fileID: 1577762957557754, guid: 5dfb69b9673a40747aea103b2fb4337c, type: 2}
  - {fileID: 1475194357647202, guid: 92271cc40b8c9914892b4fb514732f9c, type: 2}
  - {fileID: 1724610907125044, guid: 91a224a0d479c38469a5c114ca58c887, type: 2}
  - {fileID: 1187395901732194, guid: b8b78c9add5207f47b9e793270bcc7e7, type: 2}
  pooledAmount: 10
  willGrow: 1
  pooledObjects: []
