%YAML 1.1
%TAG !u! tag:unity3d.com,2011:
--- !u!1045 &1
EditorBuildSettings:
  m_ObjectHideFlags: 0
  serializedVersion: 2
  m_Scenes:
  - enabled: 1
    path: Assets/Scenes/Scene1-SplashScreen.unity
    guid: 93932028a87d96f4bb1e45de33d873d6
  - enabled: 1
    path: Assets/Scenes/Scene2-Menu.unity
    guid: d102eb12453c5d94693102399ac6f15a
  - enabled: 1
    path: Assets/Scenes/Scene9-Intro.unity
    guid: b17756e41230a1a4fbfcbd7d0d03591f
  - enabled: 1
    path: Assets/Scenes/scene3-Game.unity
    guid: a1310df7ed399554e91d133490f77f55
  - enabled: 1
    path: Assets/Scenes/Scene4-GameOver.unity
    guid: 515add9cee8cfe54a94f08a867a64d50
  - enabled: 1
    path: Assets/Scenes/Scene7-IntroBoss.unity
    guid: 9eada7cd357466441b40214ed8218bc3
  - enabled: 1
    path: Assets/Scenes/Scene5-Boss.unity
    guid: 59a98d982465ea945aba0189818eb4bd
  - enabled: 1
    path: Assets/Scenes/Scene6-GameOverVSBoss.unity
    guid: e5f7b8efadbcc4e4ca5b3bb1323bc59c
  - enabled: 1
    path: Assets/Scenes/Scene8-Win.unity
    guid: 9f32c5c4d8420534f970ee2b9e77879f
